\relax 
\providecommand\hyper@newdestlabel[2]{}
\catcode `"\active 
\providecommand\HyperFirstAtBeginDocument{\AtBeginDocument}
\HyperFirstAtBeginDocument{\ifx\hyper@anchor\@undefined
\global\let\oldcontentsline\contentsline
\gdef\contentsline#1#2#3#4{\oldcontentsline{#1}{#2}{#3}}
\global\let\oldnewlabel\newlabel
\gdef\newlabel#1#2{\newlabelxx{#1}#2}
\gdef\newlabelxx#1#2#3#4#5#6{\oldnewlabel{#1}{{#2}{#3}}}
\AtEndDocument{\ifx\hyper@anchor\@undefined
\let\contentsline\oldcontentsline
\let\newlabel\oldnewlabel
\fi}
\fi}
\global\let\hyper@last\relax 
\gdef\HyperFirstAtBeginDocument#1{#1}
\providecommand\HyField@AuxAddToFields[1]{}
\providecommand\HyField@AuxAddToCoFields[2]{}
\babel@aux{portuguese}{}
\@writefile{toc}{\contentsline {chapter}{Abstract}{IX}{chapter*.2}\protected@file@percent }
\@writefile{toc}{\contentsline {chapter}{Resumo}{XI}{chapter*.3}\protected@file@percent }
\@writefile{toc}{\contentsline {chapter}{Lista de Figuras}{XVII}{chapter*.3}\protected@file@percent }
\@writefile{toc}{\contentsline {chapter}{Lista de Tabelas}{XIX}{chapter*.3}\protected@file@percent }
\@writefile{toc}{\contentsline {chapter}{Nota\IeC {\c c}\IeC {\~a}o e Gloss\IeC {\'a}rio}{XXI}{chapter*.3}\protected@file@percent }
\@writefile{toc}{\contentsline {paragraph}{}{XXI}{chapter*.4}\protected@file@percent }
\@writefile{toc}{\contentsline {chapter}{\numberline {1}Introdu\IeC {\c c}\IeC {\~a}o}{1}{chapter.1}\protected@file@percent }
\@writefile{lof}{\addvspace {10\p@ }}
\@writefile{lot}{\addvspace {10\p@ }}
\newlabel{Introducao}{{1}{1}{Introdução}{chapter.1}{}}
\@writefile{toc}{\contentsline {section}{\numberline {1.1}Enquadramento / Contexto}{1}{section.1.1}\protected@file@percent }
\@writefile{toc}{\contentsline {section}{\numberline {1.2}Descri\IeC {\c c}\IeC {\~a}o do Problema}{2}{section.1.2}\protected@file@percent }
\citation{Agile}
\@writefile{toc}{\contentsline {subsection}{\numberline {1.2.1}Objetivos}{3}{subsection.1.2.1}\protected@file@percent }
\newlabel{Objetivos}{{1.2.1}{3}{Objetivos}{subsection.1.2.1}{}}
\@writefile{toc}{\contentsline {subsection}{\numberline {1.2.2}Abordagem}{3}{subsection.1.2.2}\protected@file@percent }
\newlabel{Abordagem}{{1.2.2}{3}{Abordagem}{subsection.1.2.2}{}}
\@writefile{toc}{\contentsline {subsection}{\numberline {1.2.3}Contributos}{4}{subsection.1.2.3}\protected@file@percent }
\@writefile{toc}{\contentsline {subsection}{\numberline {1.2.4}Planeamento do trabalho}{5}{subsection.1.2.4}\protected@file@percent }
\gtt@chartextrasize{0}{92.73569pt}
\@writefile{lof}{\contentsline {figure}{\numberline {1.1}{\ignorespaces Gr\IeC {\'a}fico de Gantt do Planeamento Geral\relax }}{5}{figure.caption.5}\protected@file@percent }
\@writefile{lot}{\contentsline {table}{\numberline {1.1}{\ignorespaces Planeamento \textit  {Sprint} 1\relax }}{5}{table.caption.6}\protected@file@percent }
\providecommand*\caption@xref[2]{\@setref\relax\@undefined{#1}}
\newlabel{tab:tabela1}{{1.1}{5}{Planeamento \textit {Sprint} 1\relax }{table.caption.6}{}}
\@writefile{lot}{\contentsline {table}{\numberline {1.2}{\ignorespaces Planeamento \textit  {Sprint} 2\relax }}{6}{table.caption.7}\protected@file@percent }
\newlabel{tab:tabela1}{{1.2}{6}{Planeamento \textit {Sprint} 2\relax }{table.caption.7}{}}
\@writefile{toc}{\contentsline {section}{\numberline {1.3}Estrutura do relat\IeC {\'o}rio}{6}{section.1.3}\protected@file@percent }
\@writefile{toc}{\contentsline {chapter}{\numberline {2}Estado da arte}{7}{chapter.2}\protected@file@percent }
\@writefile{lof}{\addvspace {10\p@ }}
\@writefile{lot}{\addvspace {10\p@ }}
\newlabel{EstadoArte}{{2}{7}{Estado da arte}{chapter.2}{}}
\@writefile{toc}{\contentsline {section}{\numberline {2.1}Trabalhos relacionados}{7}{section.2.1}\protected@file@percent }
\citation{ErasmusIntern}
\citation{GoAbroad}
\citation{GlobalExperiences}
\citation{GlobalPlacement}
\citation{InternshipsAbroad}
\@writefile{toc}{\contentsline {subsection}{\numberline {2.1.1}Sum\IeC {\'a}rio}{8}{subsection.2.1.1}\protected@file@percent }
\citation{Glassdoor}
\citation{PlataformaDEI}
\@writefile{toc}{\contentsline {subsection}{\numberline {2.1.2}Contextualiza\IeC {\c c}\IeC {\~a}o de Solu\IeC {\c c}\IeC {\~o}es}{9}{subsection.2.1.2}\protected@file@percent }
\newlabel{context}{{2.1.2}{9}{Contextualização de Soluções}{subsection.2.1.2}{}}
\@writefile{toc}{\contentsline {subsubsection}{Procura e Partilha de Diversos Tipos de Experi\IeC {\^e}ncias Internacionais}{9}{subsection.2.1.2}\protected@file@percent }
\@writefile{toc}{\contentsline {subsubsection}{Procura e Partilha de Est\IeC {\'a}gios Internacionais}{9}{subsection.2.1.2}\protected@file@percent }
\@writefile{toc}{\contentsline {subsubsection}{Procura e Partilha de Est\IeC {\'a}gios Internacionais em Parceria com Universidades}{10}{subsection.2.1.2}\protected@file@percent }
\@writefile{toc}{\contentsline {subsubsection}{Procura e Partilha de Est\IeC {\'a}gios Internacionais de Acesso Exclusivo ao DEI ISEP}{10}{subsection.2.1.2}\protected@file@percent }
\@writefile{toc}{\contentsline {subsection}{\numberline {2.1.3}Par\IeC {\^a}metros de Avalia\IeC {\c c}\IeC {\~a}o}{10}{subsection.2.1.3}\protected@file@percent }
\@writefile{toc}{\contentsline {subsubsection}{Acesso a Pesquisa de Est\IeC {\'a}gios}{10}{subsection.2.1.3}\protected@file@percent }
\@writefile{lot}{\contentsline {table}{\numberline {2.1}{\ignorespaces Requerimento de Conta de Utilizador para Pesquisa\relax }}{11}{table.caption.8}\protected@file@percent }
\newlabel{tab:tabela1}{{2.1}{11}{Requerimento de Conta de Utilizador para Pesquisa\relax }{table.caption.8}{}}
\@writefile{toc}{\contentsline {subsubsection}{Filtros de Pesquisa de Propostas}{11}{table.caption.8}\protected@file@percent }
\@writefile{lot}{\contentsline {table}{\numberline {2.2}{\ignorespaces Filtros de Pesquisa de Propostas\relax }}{12}{table.caption.9}\protected@file@percent }
\newlabel{tab:tabela1}{{2.2}{12}{Filtros de Pesquisa de Propostas\relax }{table.caption.9}{}}
\@writefile{toc}{\contentsline {subsubsection}{Presen\IeC {\c c}a nas Redes Sociais}{12}{table.caption.9}\protected@file@percent }
\@writefile{lot}{\contentsline {table}{\numberline {2.3}{\ignorespaces Presen\IeC {\c c}a nas Redes Sociais\relax }}{13}{table.caption.10}\protected@file@percent }
\newlabel{tab:tabela1}{{2.3}{13}{Presença nas Redes Sociais\relax }{table.caption.10}{}}
\@writefile{toc}{\contentsline {subsubsection}{Acesso \IeC {\`a} Cria\IeC {\c c}\IeC {\~a}o de Propostas}{13}{table.caption.10}\protected@file@percent }
\@writefile{lot}{\contentsline {table}{\numberline {2.4}{\ignorespaces Requerimento de Conta de Utilizador para Cria\IeC {\c c}\IeC {\~a}o de Proposta\relax }}{14}{table.caption.11}\protected@file@percent }
\newlabel{tab:tabela1}{{2.4}{14}{Requerimento de Conta de Utilizador para Criação de Proposta\relax }{table.caption.11}{}}
\@writefile{toc}{\contentsline {subsection}{\numberline {2.1.4}Considera\IeC {\c c}\IeC {\~o}es Gerais}{14}{subsection.2.1.4}\protected@file@percent }
\citation{FrameworkComparison}
\citation{FrameworkComparisonCode}
\@writefile{toc}{\contentsline {section}{\numberline {2.2}Tecnologias existentes}{15}{section.2.2}\protected@file@percent }
\@writefile{toc}{\contentsline {subsection}{\numberline {2.2.1}Tecnologias Alternativas}{15}{subsection.2.2.1}\protected@file@percent }
\@writefile{toc}{\contentsline {subsubsection}{\textit  {Frameworks} Alternativas}{15}{subsection.2.2.1}\protected@file@percent }
\@writefile{toc}{\contentsline {paragraph}{Teste 1}{15}{subsection.2.2.1}\protected@file@percent }
\citation{FrameworkComparisonCode}
\citation{FrameworkComparisonCode}
\@writefile{lot}{\contentsline {table}{\numberline {2.5}{\ignorespaces Respostas por segundo a 1 e 20 \textit  {queries} por pedido\relax }}{16}{table.caption.12}\protected@file@percent }
\newlabel{tab:tabela1}{{2.5}{16}{Respostas por segundo a 1 e 20 \textit {queries} por pedido\relax }{table.caption.12}{}}
\@writefile{toc}{\contentsline {paragraph}{Teste 2}{16}{table.caption.12}\protected@file@percent }
\@writefile{lot}{\contentsline {table}{\numberline {2.6}{\ignorespaces Respostas JSON por segundo\relax }}{16}{table.caption.13}\protected@file@percent }
\newlabel{tab:tabela1}{{2.6}{16}{Respostas JSON por segundo\relax }{table.caption.13}{}}
\@writefile{toc}{\contentsline {paragraph}{Teste 3}{16}{table.caption.13}\protected@file@percent }
\citation{SOLanguageStudy}
\@writefile{lot}{\contentsline {table}{\numberline {2.7}{\ignorespaces Respostas por segundo a 20 \textit  {updates} por pedido\relax }}{17}{table.caption.14}\protected@file@percent }
\newlabel{tab:tabela1}{{2.7}{17}{Respostas por segundo a 20 \textit {updates} por pedido\relax }{table.caption.14}{}}
\@writefile{toc}{\contentsline {subsubsection}{Considera\IeC {\c c}\IeC {\~o}es Gerais}{17}{table.caption.14}\protected@file@percent }
\@writefile{toc}{\contentsline {paragraph}{Acessibilidade}{17}{table.caption.14}\protected@file@percent }
\citation{SOLanguageStudy}
\citation{TIOBEIndex2019}
\@writefile{lof}{\contentsline {figure}{\numberline {2.1}{\ignorespaces Linguagens de Programa\IeC {\c c}\IeC {\~a}o mais usadas em 2018 (excerto)\relax }}{18}{figure.caption.15}\protected@file@percent }
\newlabel{fig:figura 1}{{2.1}{18}{Linguagens de Programação mais usadas em 2018 (excerto)\relax }{figure.caption.15}{}}
\@writefile{toc}{\contentsline {paragraph}{Popularidade}{18}{figure.caption.15}\protected@file@percent }
\citation{TIOBEIndex2019}
\@writefile{lof}{\contentsline {figure}{\numberline {2.2}{\ignorespaces Linguagens de Programa\IeC {\c c}\IeC {\~a}o mais populares 2018-2019 (excerto)\relax }}{19}{figure.caption.16}\protected@file@percent }
\newlabel{fig:figura 1}{{2.2}{19}{Linguagens de Programação mais populares 2018-2019 (excerto)\relax }{figure.caption.16}{}}
\@writefile{toc}{\contentsline {subsubsection}{Conclus\IeC {\~a}o}{19}{figure.caption.16}\protected@file@percent }
\citation{PHPIntro}
\citation{Symfony}
\citation{Twig}
\citation{MySQL}
\citation{PHPBenchmarks}
\@writefile{toc}{\contentsline {subsection}{\numberline {2.2.2}Tecnologias Em Uso}{20}{subsection.2.2.2}\protected@file@percent }
\@writefile{toc}{\contentsline {subsubsection}{PHP 5.6}{20}{subsection.2.2.2}\protected@file@percent }
\@writefile{toc}{\contentsline {subsubsection}{Symfony 2.3}{20}{subsection.2.2.2}\protected@file@percent }
\@writefile{toc}{\contentsline {subsubsection}{Twig}{20}{subsection.2.2.2}\protected@file@percent }
\@writefile{toc}{\contentsline {subsubsection}{MySQL}{20}{subsection.2.2.2}\protected@file@percent }
\@writefile{toc}{\contentsline {subsection}{\numberline {2.2.3}Vers\IeC {\~o}es Alternativas}{20}{subsection.2.2.3}\protected@file@percent }
\citation{PHPBenchmarks}
\citation{PHPBenchmarks}
\@writefile{toc}{\contentsline {subsubsection}{PHP}{21}{subsection.2.2.3}\protected@file@percent }
\@writefile{lot}{\contentsline {table}{\numberline {2.8}{\ignorespaces \textit  {Benchmark} de diversas vers\IeC {\~o}es de PHP\relax }}{21}{table.caption.17}\protected@file@percent }
\newlabel{tab:tabela1}{{2.8}{21}{\textit {Benchmark} de diversas versões de PHP\relax }{table.caption.17}{}}
\@writefile{toc}{\contentsline {subsubsection}{Symfony}{21}{table.caption.17}\protected@file@percent }
\citation{PHPBenchmarks}
\citation{PHPBenchmarks}
\@writefile{lot}{\contentsline {table}{\numberline {2.9}{\ignorespaces \textit  {Benchmark} de diversas vers\IeC {\~o}es do Symfony\relax }}{22}{table.caption.18}\protected@file@percent }
\newlabel{tab:tabela1}{{2.9}{22}{\textit {Benchmark} de diversas versões do Symfony\relax }{table.caption.18}{}}
\@writefile{toc}{\contentsline {subsubsection}{Twig}{22}{table.caption.18}\protected@file@percent }
\@writefile{lot}{\contentsline {table}{\numberline {2.10}{\ignorespaces \textit  {Benchmark} de diversas vers\IeC {\~o}es do Twig\relax }}{23}{table.caption.19}\protected@file@percent }
\newlabel{tab:tabela1}{{2.10}{23}{\textit {Benchmark} de diversas versões do Twig\relax }{table.caption.19}{}}
\@writefile{toc}{\contentsline {subsubsection}{Conclus\IeC {\~a}o}{23}{table.caption.19}\protected@file@percent }
\citation{FURPS01}
\@writefile{toc}{\contentsline {chapter}{\numberline {3}An\IeC {\'a}lise e desenho da solu\IeC {\c c}\IeC {\~a}o}{25}{chapter.3}\protected@file@percent }
\@writefile{lof}{\addvspace {10\p@ }}
\@writefile{lot}{\addvspace {10\p@ }}
\newlabel{cap:AnaliseDesenho}{{3}{25}{Análise e desenho da solução}{chapter.3}{}}
\@writefile{toc}{\contentsline {section}{\numberline {3.1}Dom\IeC {\'\i }nio do problema}{25}{section.3.1}\protected@file@percent }
\@writefile{lof}{\contentsline {figure}{\numberline {3.1}{\ignorespaces Modelo de Dom\IeC {\'\i }nio\relax }}{26}{figure.caption.20}\protected@file@percent }
\newlabel{fig:Domain Model}{{3.1}{26}{Modelo de Domínio\relax }{figure.caption.20}{}}
\@writefile{toc}{\contentsline {section}{\numberline {3.2}Requisitos funcionais e n\IeC {\~a}o funcionais}{28}{section.3.2}\protected@file@percent }
\@writefile{toc}{\contentsline {subsection}{\numberline {3.2.1}Requisitos}{28}{subsection.3.2.1}\protected@file@percent }
\citation{FURPS02}
\citation{Functional_Requirements}
\@writefile{toc}{\contentsline {subsection}{\numberline {3.2.2}Modelo FURPS+}{29}{subsection.3.2.2}\protected@file@percent }
\citation{Non_Functional_Requirements}
\citation{FURPS02}
\citation{ISO_9126}
\citation{ISO_9126}
\citation{ISO_9126}
\@writefile{toc}{\contentsline {subsubsection}{Caracter\IeC {\'\i }sticas de Qualidade}{30}{subsection.3.2.2}\protected@file@percent }
\@writefile{toc}{\contentsline {paragraph}{Funcionalidade}{30}{subsection.3.2.2}\protected@file@percent }
\@writefile{toc}{\contentsline {paragraph}{Usabilidade}{30}{subsection.3.2.2}\protected@file@percent }
\citation{Software_Performance}
\citation{Software_Supportability}
\@writefile{toc}{\contentsline {paragraph}{Fiabilidade/Confiabilidade}{31}{subsection.3.2.2}\protected@file@percent }
\@writefile{toc}{\contentsline {paragraph}{Desempenho}{31}{subsection.3.2.2}\protected@file@percent }
\@writefile{toc}{\contentsline {paragraph}{Suportabilidade}{31}{subsection.3.2.2}\protected@file@percent }
\@writefile{toc}{\contentsline {paragraph}{Restri\IeC {\c c}\IeC {\~o}es de \textit  {Design}}{31}{subsection.3.2.2}\protected@file@percent }
\@writefile{toc}{\contentsline {paragraph}{Restri\IeC {\c c}\IeC {\~o}es de Implementa\IeC {\c c}\IeC {\~a}o}{31}{subsection.3.2.2}\protected@file@percent }
\@writefile{toc}{\contentsline {paragraph}{Restri\IeC {\c c}\IeC {\~o}es de \textit  {Interface}}{31}{subsection.3.2.2}\protected@file@percent }
\@writefile{toc}{\contentsline {subsection}{\numberline {3.2.3}Casos de Uso}{32}{subsection.3.2.3}\protected@file@percent }
\@writefile{lof}{\contentsline {figure}{\numberline {3.2}{\ignorespaces Diagrama de Casos de Uso\relax }}{32}{figure.caption.21}\protected@file@percent }
\newlabel{fig:Use_Case_Diagram}{{3.2}{32}{Diagrama de Casos de Uso\relax }{figure.caption.21}{}}
\@writefile{lot}{\contentsline {table}{\numberline {3.1}{\ignorespaces Distribui\IeC {\c c}\IeC {\~a}o de Tarefas por Caso de Uso\relax }}{33}{table.caption.22}\protected@file@percent }
\newlabel{tab:Distribui\IeC {\c c}\IeC {\~a}o}{{3.1}{33}{Distribuição de Tarefas por Caso de Uso\relax }{table.caption.22}{}}
\@writefile{toc}{\contentsline {subsection}{\numberline {3.2.4}Engenharia de Requisitos}{34}{subsection.3.2.4}\protected@file@percent }
\@writefile{toc}{\contentsline {subsubsection}{\textit  {UC01 - Create Proposal}}{34}{subsection.3.2.4}\protected@file@percent }
\@writefile{lof}{\contentsline {figure}{\numberline {3.3}{\ignorespaces UC01 - \textit  {System Sequence Diagram}\relax }}{34}{figure.caption.23}\protected@file@percent }
\newlabel{fig:UC01 - Create Proposal - SSD}{{3.3}{34}{UC01 - \textit {System Sequence Diagram}\relax }{figure.caption.23}{}}
\@writefile{toc}{\contentsline {subsubsection}{\textit  {UC04 - Evaluate Institution}}{36}{Item.6}\protected@file@percent }
\@writefile{lof}{\contentsline {figure}{\numberline {3.4}{\ignorespaces UC04 - \textit  {System Sequence Diagram}\relax }}{36}{figure.caption.24}\protected@file@percent }
\newlabel{fig:UC04 - Evaluate Institution - SSD}{{3.4}{36}{UC04 - \textit {System Sequence Diagram}\relax }{figure.caption.24}{}}
\@writefile{toc}{\contentsline {subsubsection}{\textit  {UC06 - Update Proposal}}{38}{Item.12}\protected@file@percent }
\@writefile{lof}{\contentsline {figure}{\numberline {3.5}{\ignorespaces UC06 - \textit  {System Sequence Diagram}\relax }}{38}{figure.caption.25}\protected@file@percent }
\newlabel{fig:UC06 - Update Proposal - SSD}{{3.5}{38}{UC06 - \textit {System Sequence Diagram}\relax }{figure.caption.25}{}}
\@writefile{toc}{\contentsline {subsubsection}{\textit  {UC14 - Purge Database}}{40}{Item.18}\protected@file@percent }
\@writefile{lof}{\contentsline {figure}{\numberline {3.6}{\ignorespaces UC14 - \textit  {System Sequence Diagram}\relax }}{40}{figure.caption.26}\protected@file@percent }
\newlabel{fig:UC14 - Purge Database - SSD}{{3.6}{40}{UC14 - \textit {System Sequence Diagram}\relax }{figure.caption.26}{}}
\@writefile{toc}{\contentsline {subsubsection}{\textit  {UC15 - Clone Proposal}}{42}{Item.24}\protected@file@percent }
\@writefile{lof}{\contentsline {figure}{\numberline {3.7}{\ignorespaces UC15 - \textit  {System Sequence Diagram}\relax }}{42}{figure.caption.27}\protected@file@percent }
\newlabel{fig:UC15 - Clone Proposal - SSD}{{3.7}{42}{UC15 - \textit {System Sequence Diagram}\relax }{figure.caption.27}{}}
\@writefile{toc}{\contentsline {subsubsection}{\textit  {UC18 - Search Proposal}}{44}{Item.30}\protected@file@percent }
\@writefile{lof}{\contentsline {figure}{\numberline {3.8}{\ignorespaces UC18 - \textit  {System Sequence Diagram}\relax }}{44}{figure.caption.28}\protected@file@percent }
\newlabel{fig:UC18 - Search Proposal - SSD}{{3.8}{44}{UC18 - \textit {System Sequence Diagram}\relax }{figure.caption.28}{}}
\citation{Symfony_MVC}
\citation{Symfony_MVC}
\citation{MVC_Arquitecture}
\citation{Symfony_MVC}
\citation{MVC_Arquitecture}
\citation{Symfony_MVC}
\citation{MVC_Arquitecture}
\@writefile{toc}{\contentsline {section}{\numberline {3.3}Desenho}{45}{section.3.3}\protected@file@percent }
\newlabel{Desenho}{{3.3}{45}{Desenho}{section.3.3}{}}
\@writefile{toc}{\contentsline {subsection}{\numberline {3.3.1}Estilo Arquitetural}{45}{subsection.3.3.1}\protected@file@percent }
\citation{Symfony_MVC}
\@writefile{lof}{\contentsline {figure}{\numberline {3.9}{\ignorespaces Representa\IeC {\c c}\IeC {\~a}o gen\IeC {\'e}rica da arquitetura MVC.\relax }}{46}{figure.caption.29}\protected@file@percent }
\newlabel{fig:Generic_MVC}{{3.9}{46}{Representação genérica da arquitetura MVC.\relax }{figure.caption.29}{}}
\@writefile{lof}{\contentsline {figure}{\numberline {3.10}{\ignorespaces Diagrama de Componentes | Granularidade de Aplica\IeC {\c c}\IeC {\~a}o\relax }}{46}{figure.caption.30}\protected@file@percent }
\newlabel{fig:Component Diagram Application}{{3.10}{46}{Diagrama de Componentes | Granularidade de Aplicação\relax }{figure.caption.30}{}}
\citation{Symfony_MVC}
\@writefile{lof}{\contentsline {figure}{\numberline {3.11}{\ignorespaces Utiliza\IeC {\c c}\IeC {\~a}o do MVC pelo \textit  {Symfony}.\relax }}{47}{figure.caption.31}\protected@file@percent }
\newlabel{fig:Symfony_MVC}{{3.11}{47}{Utilização do MVC pelo \textit {Symfony}.\relax }{figure.caption.31}{}}
\citation{PHPIntro}
\@writefile{toc}{\contentsline {subsection}{\numberline {3.3.2}Intera\IeC {\c c}\IeC {\~a}o Gen\IeC {\'e}rica Utilizador-Sistema}{48}{subsection.3.3.2}\protected@file@percent }
\newlabel{Generic_Interaction}{{3.3.2}{48}{Interação Genérica Utilizador-Sistema}{subsection.3.3.2}{}}
\@writefile{lof}{\contentsline {figure}{\numberline {3.12}{\ignorespaces Intera\IeC {\c c}\IeC {\~a}o b\IeC {\'a}sica\relax }}{48}{figure.caption.32}\protected@file@percent }
\newlabel{fig:Generic_User_Interaction_02}{{3.12}{48}{Interação básica\relax }{figure.caption.32}{}}
\@writefile{lol}{\contentsline {lstlisting}{\numberline {3.1}Implementa\IeC {\c c}\IeC {\~a}o usando o \textit  {Form Interpreter} do \textit  {Symfony}}{48}{lstlisting.3.1}\protected@file@percent }
\@writefile{lof}{\contentsline {figure}{\numberline {3.13}{\ignorespaces Intera\IeC {\c c}\IeC {\~a}o com preenchimento de formul\IeC {\'a}rio\relax }}{49}{figure.caption.33}\protected@file@percent }
\newlabel{fig:Generic_User_Interaction_01}{{3.13}{49}{Interação com preenchimento de formulário\relax }{figure.caption.33}{}}
\@writefile{toc}{\contentsline {subsection}{\numberline {3.3.3}\textit  {Use Case 01 - Create Proposal}}{50}{subsection.3.3.3}\protected@file@percent }
\@writefile{toc}{\contentsline {subsubsection}{\textit  {Modelo de Dom\IeC {\'\i }nio}}{50}{subsection.3.3.3}\protected@file@percent }
\@writefile{lof}{\contentsline {figure}{\numberline {3.14}{\ignorespaces Modelo de Dom\IeC {\'\i }nio - UC01\relax }}{50}{figure.caption.34}\protected@file@percent }
\newlabel{fig:Domain Model - UC01, UC06 & UC15}{{3.14}{50}{Modelo de Domínio - UC01\relax }{figure.caption.34}{}}
\@writefile{toc}{\contentsline {subsubsection}{\textit  {Diagrama de Classes}}{51}{figure.caption.34}\protected@file@percent }
\@writefile{lof}{\contentsline {figure}{\numberline {3.15}{\ignorespaces UC01 - Diagrama de Classes\relax }}{51}{figure.caption.35}\protected@file@percent }
\newlabel{fig:UC01 - Create Proposal - Class Diagram}{{3.15}{51}{UC01 - Diagrama de Classes\relax }{figure.caption.35}{}}
\@writefile{toc}{\contentsline {subsubsection}{\textit  {Diagrama de Sequ\IeC {\^e}ncia}}{52}{figure.caption.35}\protected@file@percent }
\@writefile{lof}{\contentsline {figure}{\numberline {3.16}{\ignorespaces UC01 - \textit  {Diagrama de Sequ\IeC {\^e}ncia}\relax }}{52}{figure.caption.36}\protected@file@percent }
\newlabel{fig:UC01 - Create Proposal - Sequence Diagram}{{3.16}{52}{UC01 - \textit {Diagrama de Sequência}\relax }{figure.caption.36}{}}
\@writefile{toc}{\contentsline {subsection}{\numberline {3.3.4}\textit  {Use Case 04 - Evaluate Institution}}{53}{subsection.3.3.4}\protected@file@percent }
\@writefile{toc}{\contentsline {subsubsection}{\textit  {Modelo de Dom\IeC {\'\i }nio}}{53}{subsection.3.3.4}\protected@file@percent }
\@writefile{lof}{\contentsline {figure}{\numberline {3.17}{\ignorespaces UC04 - Modelo de Dom\IeC {\'\i }nio\relax }}{53}{figure.caption.37}\protected@file@percent }
\newlabel{fig:UC04 - Evaluate Institution - Domain Model}{{3.17}{53}{UC04 - Modelo de Domínio\relax }{figure.caption.37}{}}
\@writefile{toc}{\contentsline {subsubsection}{\textit  {Diagrama de Classes}}{54}{figure.caption.37}\protected@file@percent }
\@writefile{lof}{\contentsline {figure}{\numberline {3.18}{\ignorespaces UC04 - Diagrama de Classes\relax }}{54}{figure.caption.38}\protected@file@percent }
\newlabel{fig:UC04 - Evaluate Institution - Class Diagram}{{3.18}{54}{UC04 - Diagrama de Classes\relax }{figure.caption.38}{}}
\@writefile{toc}{\contentsline {subsubsection}{\textit  {Diagrama de Sequ\IeC {\^e}ncia}}{55}{figure.caption.38}\protected@file@percent }
\@writefile{lof}{\contentsline {figure}{\numberline {3.19}{\ignorespaces UC04 - \textit  {Diagrama de Sequ\IeC {\^e}ncia}\relax }}{55}{figure.caption.39}\protected@file@percent }
\newlabel{fig:UC04 - Evaluate Institution - Sequence Diagram}{{3.19}{55}{UC04 - \textit {Diagrama de Sequência}\relax }{figure.caption.39}{}}
\@writefile{toc}{\contentsline {subsection}{\numberline {3.3.5}\textit  {Use Case 06 - Update Proposal}}{56}{subsection.3.3.5}\protected@file@percent }
\@writefile{toc}{\contentsline {subsubsection}{\textit  {Modelo de Dom\IeC {\'\i }nio}}{56}{subsection.3.3.5}\protected@file@percent }
\@writefile{lof}{\contentsline {figure}{\numberline {3.20}{\ignorespaces Modelo de Dom\IeC {\'\i }nio - UC01\relax }}{56}{figure.caption.40}\protected@file@percent }
\newlabel{fig:Domain Model - UC01, UC06 & UC15}{{3.20}{56}{Modelo de Domínio - UC01\relax }{figure.caption.40}{}}
\@writefile{toc}{\contentsline {subsubsection}{\textit  {Diagrama de Classes}}{57}{figure.caption.40}\protected@file@percent }
\@writefile{lof}{\contentsline {figure}{\numberline {3.21}{\ignorespaces UC06 - Diagrama de Classes\relax }}{57}{figure.caption.41}\protected@file@percent }
\newlabel{fig:UC06 - Update Proposal - Class Diagram}{{3.21}{57}{UC06 - Diagrama de Classes\relax }{figure.caption.41}{}}
\@writefile{toc}{\contentsline {subsubsection}{\textit  {Diagrama de Sequ\IeC {\^e}ncia}}{58}{figure.caption.41}\protected@file@percent }
\@writefile{lof}{\contentsline {figure}{\numberline {3.22}{\ignorespaces UC06 - \textit  {Diagrama de Sequ\IeC {\^e}ncia}\relax }}{58}{figure.caption.42}\protected@file@percent }
\newlabel{fig:UC06 - Update Proposal - SD}{{3.22}{58}{UC06 - \textit {Diagrama de Sequência}\relax }{figure.caption.42}{}}
\@writefile{toc}{\contentsline {subsection}{\numberline {3.3.6}\textit  {Use Case 14 - Purge Database}}{59}{subsection.3.3.6}\protected@file@percent }
\@writefile{toc}{\contentsline {subsubsection}{\textit  {Modelo de Dom\IeC {\'\i }nio}}{59}{subsection.3.3.6}\protected@file@percent }
\@writefile{lof}{\contentsline {figure}{\numberline {3.23}{\ignorespaces UC14 - Modelo de Dom\IeC {\'\i }nio\relax }}{59}{figure.caption.43}\protected@file@percent }
\newlabel{fig:UC14 - Purge Database - Domain Model}{{3.23}{59}{UC14 - Modelo de Domínio\relax }{figure.caption.43}{}}
\@writefile{toc}{\contentsline {subsubsection}{\textit  {Diagrama de Classes}}{59}{figure.caption.43}\protected@file@percent }
\@writefile{lof}{\contentsline {figure}{\numberline {3.24}{\ignorespaces UC14 - \textit  {Diagrama de Classes}\relax }}{59}{figure.caption.44}\protected@file@percent }
\newlabel{fig:UC14 - Purge Database - Class Diagram}{{3.24}{59}{UC14 - \textit {Diagrama de Classes}\relax }{figure.caption.44}{}}
\@writefile{toc}{\contentsline {subsubsection}{\textit  {Diagrama de Sequ\IeC {\^e}ncia}}{60}{figure.caption.44}\protected@file@percent }
\@writefile{lof}{\contentsline {figure}{\numberline {3.25}{\ignorespaces UC14 - \textit  {Diagrama de Sequ\IeC {\^e}ncia}\relax }}{60}{figure.caption.45}\protected@file@percent }
\newlabel{fig:UC14 - Purge Database - Sequence Diagram}{{3.25}{60}{UC14 - \textit {Diagrama de Sequência}\relax }{figure.caption.45}{}}
\@writefile{toc}{\contentsline {subsection}{\numberline {3.3.7}\textit  {Use Case 15 - Clone Proposal}}{61}{subsection.3.3.7}\protected@file@percent }
\@writefile{toc}{\contentsline {subsubsection}{\textit  {Modelo de Dom\IeC {\'\i }nio}}{61}{subsection.3.3.7}\protected@file@percent }
\@writefile{lof}{\contentsline {figure}{\numberline {3.26}{\ignorespaces Modelo de Dom\IeC {\'\i }nio - UC01\relax }}{61}{figure.caption.46}\protected@file@percent }
\newlabel{fig:Domain Model - UC01, UC06 & UC15}{{3.26}{61}{Modelo de Domínio - UC01\relax }{figure.caption.46}{}}
\@writefile{toc}{\contentsline {subsubsection}{\textit  {Diagrama de Classes}}{62}{figure.caption.46}\protected@file@percent }
\@writefile{lof}{\contentsline {figure}{\numberline {3.27}{\ignorespaces UC15 - Diagrama de Classes\relax }}{62}{figure.caption.47}\protected@file@percent }
\newlabel{fig:UC15 - Clone Proposal - Class Diagram}{{3.27}{62}{UC15 - Diagrama de Classes\relax }{figure.caption.47}{}}
\@writefile{toc}{\contentsline {subsubsection}{\textit  {Diagrama de Sequ\IeC {\^e}ncia}}{63}{figure.caption.47}\protected@file@percent }
\@writefile{lof}{\contentsline {figure}{\numberline {3.28}{\ignorespaces UC15 - \textit  {Diagrama de Sequ\IeC {\^e}ncia}\relax }}{63}{figure.caption.48}\protected@file@percent }
\newlabel{fig:UC15 - Clone Proposal - SD}{{3.28}{63}{UC15 - \textit {Diagrama de Sequência}\relax }{figure.caption.48}{}}
\@writefile{toc}{\contentsline {subsection}{\numberline {3.3.8}\textit  {Use Case 18 - Search Proposal}}{64}{subsection.3.3.8}\protected@file@percent }
\@writefile{toc}{\contentsline {subsubsection}{\textit  {Modelo de Dom\IeC {\'\i }nio}}{64}{subsection.3.3.8}\protected@file@percent }
\@writefile{lof}{\contentsline {figure}{\numberline {3.29}{\ignorespaces UC18 - Modelo de Dom\IeC {\'\i }nio\relax }}{64}{figure.caption.49}\protected@file@percent }
\newlabel{fig:UC18 - Search Proposal - Domain Model}{{3.29}{64}{UC18 - Modelo de Domínio\relax }{figure.caption.49}{}}
\@writefile{toc}{\contentsline {subsubsection}{\textit  {Diagrama de Classes}}{65}{figure.caption.49}\protected@file@percent }
\@writefile{lof}{\contentsline {figure}{\numberline {3.30}{\ignorespaces UC18 - \textit  {Diagrama de Classes}\relax }}{65}{figure.caption.50}\protected@file@percent }
\newlabel{fig:UC18 - Search Proposal - Class Diagram}{{3.30}{65}{UC18 - \textit {Diagrama de Classes}\relax }{figure.caption.50}{}}
\@writefile{toc}{\contentsline {subsubsection}{\textit  {Diagrama de Sequ\IeC {\^e}ncia}}{66}{figure.caption.50}\protected@file@percent }
\@writefile{lof}{\contentsline {figure}{\numberline {3.31}{\ignorespaces UC18 - \textit  {Diagrama de Sequ\IeC {\^e}ncia}\relax }}{66}{figure.caption.51}\protected@file@percent }
\newlabel{fig:UC18 - Search Proposal - SD}{{3.31}{66}{UC18 - \textit {Diagrama de Sequência}\relax }{figure.caption.51}{}}
\@writefile{toc}{\contentsline {subsection}{\numberline {3.3.9}API de registo de utilizadores}{67}{subsection.3.3.9}\protected@file@percent }
\@writefile{lof}{\contentsline {figure}{\numberline {3.32}{\ignorespaces API Register Student\relax }}{67}{figure.caption.52}\protected@file@percent }
\newlabel{fig:API Register Student}{{3.32}{67}{API Register Student\relax }{figure.caption.52}{}}
\@writefile{lof}{\contentsline {figure}{\numberline {3.33}{\ignorespaces API Register Student - Field Registration\relax }}{68}{figure.caption.53}\protected@file@percent }
\newlabel{fig:API Register Student - Field Registration}{{3.33}{68}{API Register Student - Field Registration\relax }{figure.caption.53}{}}
\@writefile{lof}{\contentsline {figure}{\numberline {3.34}{\ignorespaces API Register Student - Diagrama de Componentes | Aplica\IeC {\c c}\IeC {\~a}o\relax }}{68}{figure.caption.54}\protected@file@percent }
\newlabel{fig:API Register Student - Component Application}{{3.34}{68}{API Register Student - Diagrama de Componentes | Aplicação\relax }{figure.caption.54}{}}
\@writefile{lof}{\contentsline {figure}{\numberline {3.35}{\ignorespaces API Register Student - Diagrama de N\IeC {\'o}s | Vista de Implanta\IeC {\c c}\IeC {\~a}o\relax }}{68}{figure.caption.55}\protected@file@percent }
\newlabel{fig:API Register Student - Component System}{{3.35}{68}{API Register Student - Diagrama de Nós | Vista de Implantação\relax }{figure.caption.55}{}}
\@writefile{toc}{\contentsline {chapter}{\numberline {4}Implementa\IeC {\c c}\IeC {\~a}o da Solu\IeC {\c c}\IeC {\~a}o}{69}{chapter.4}\protected@file@percent }
\@writefile{lof}{\addvspace {10\p@ }}
\@writefile{lot}{\addvspace {10\p@ }}
\newlabel{cap:ImplementacaoSolucao}{{4}{69}{Implementação da Solução}{chapter.4}{}}
\@writefile{toc}{\contentsline {section}{\numberline {4.1}Descri\IeC {\c c}\IeC {\~a}o da implementa\IeC {\c c}\IeC {\~a}o}{69}{section.4.1}\protected@file@percent }
\newlabel{Implementa\IeC {\c c}\IeC {\~a}o}{{4.1}{69}{Descrição da implementação}{section.4.1}{}}
\@writefile{toc}{\contentsline {subsection}{\numberline {4.1.1}\textit  {Entity}}{69}{subsection.4.1.1}\protected@file@percent }
\citation{PHP_Visibility}
\citation{PHP_Visibility}
\citation{Symfony_Associations}
\@writefile{toc}{\contentsline {subsubsection}{\textit  {Many-To-Many}}{70}{subsection.4.1.1}\protected@file@percent }
\newlabel{code:many_to_many01}{{4.1}{70}{Exemplo de uma relação \textit {many-to-many}, do ponto de vista da entidade que contém a outra}{lstlisting.4.1}{}}
\@writefile{lol}{\contentsline {lstlisting}{\numberline {4.1}Exemplo de uma rela\IeC {\c c}\IeC {\~a}o \textit  {many-to-many}, do ponto de vista da entidade que cont\IeC {\'e}m a outra}{70}{lstlisting.4.1}\protected@file@percent }
\newlabel{code:many_to_many02}{{4.2}{71}{Exemplo de uma relação \textit {many-to-many}, do ponto de vista da entidade que é contida na outra}{lstlisting.4.2}{}}
\@writefile{lol}{\contentsline {lstlisting}{\numberline {4.2}Exemplo de uma rela\IeC {\c c}\IeC {\~a}o \textit  {many-to-many}, do ponto de vista da entidade que \IeC {\'e} contida na outra}{71}{lstlisting.4.2}\protected@file@percent }
\@writefile{toc}{\contentsline {subsubsection}{\textit  {One-To-Many \& Many-To-One}}{71}{lstnumber.4.2.7}\protected@file@percent }
\newlabel{code:many_to_one}{{4.3}{71}{Exemplo de uma relação many to one}{lstlisting.4.3}{}}
\@writefile{lol}{\contentsline {lstlisting}{\numberline {4.3}Exemplo de uma rela\IeC {\c c}\IeC {\~a}o many to one}{71}{lstlisting.4.3}\protected@file@percent }
\newlabel{code:one_to_many}{{4.4}{71}{Exemplo de uma relação one to many}{lstlisting.4.4}{}}
\@writefile{lol}{\contentsline {lstlisting}{\numberline {4.4}Exemplo de uma rela\IeC {\c c}\IeC {\~a}o one to many}{71}{lstlisting.4.4}\protected@file@percent }
\citation{Symfony_Controller}
\citation{Symfony_Routing}
\@writefile{toc}{\contentsline {subsection}{\numberline {4.1.2}\textit  {Controller}}{73}{subsection.4.1.2}\protected@file@percent }
\newlabel{Controller}{{4.1.2}{73}{\textit {Controller}}{subsection.4.1.2}{}}
\newlabel{code:url_controller}{{4.5}{73}{Exemplo de um mapeamento de um método de um \textit {Controller} a uma \textit {URL}}{lstlisting.4.5}{}}
\@writefile{lol}{\contentsline {lstlisting}{\numberline {4.5}Exemplo de um mapeamento de um m\IeC {\'e}todo de um \textit  {Controller} a uma \textit  {URL}}{73}{lstlisting.4.5}\protected@file@percent }
\newlabel{code:wildcard}{{4.6}{73}{Exemplo de um mapeamento de um método de um \textit {Controller} a uma \textit {URL}}{lstlisting.4.6}{}}
\@writefile{lol}{\contentsline {lstlisting}{\numberline {4.6}Exemplo de um mapeamento de um m\IeC {\'e}todo de um \textit  {Controller} a uma \textit  {URL}}{73}{lstlisting.4.6}\protected@file@percent }
\citation{Symfony_Controller}
\citation{Symfony_Template}
\newlabel{code:reencaminhamento_interno}{{4.7}{74}{Exemplo de implementação de reencaminhamento interno, através de um botão na UI}{lstlisting.4.7}{}}
\@writefile{lol}{\contentsline {lstlisting}{\numberline {4.7}Exemplo de implementa\IeC {\c c}\IeC {\~a}o de reencaminhamento interno, atrav\IeC {\'e}s de um bot\IeC {\~a}o na UI}{74}{lstlisting.4.7}\protected@file@percent }
\@writefile{lof}{\contentsline {figure}{\numberline {4.1}{\ignorespaces Exemplo de op\IeC {\c c}\IeC {\~a}o que usa reencaminhamento interno\relax }}{74}{figure.caption.56}\protected@file@percent }
\newlabel{fig:botao_reencaminhamento}{{4.1}{74}{Exemplo de opção que usa reencaminhamento interno\relax }{figure.caption.56}{}}
\@writefile{lof}{\contentsline {figure}{\numberline {4.2}{\ignorespaces Op\IeC {\c c}\IeC {\~a}o de clonagem de uma \textit  {proposal}\relax }}{77}{figure.caption.57}\protected@file@percent }
\newlabel{fig:clone_button}{{4.2}{77}{Opção de clonagem de uma \textit {proposal}\relax }{figure.caption.57}{}}
\citation{Refactoring}
\citation{Refactoring}
\@writefile{toc}{\contentsline {subsection}{\numberline {4.1.3}\textit  {Service}}{78}{subsection.4.1.3}\protected@file@percent }
\newlabel{Services}{{4.1.3}{78}{\textit {Service}}{subsection.4.1.3}{}}
\citation{Symfony_Mailer}
\newlabel{code:EM_Dependency}{{4.8}{79}{Exemplo de dependência entre \textit {Services} e o \textit {Controller}}{lstlisting.4.8}{}}
\@writefile{lol}{\contentsline {lstlisting}{\numberline {4.8}Exemplo de depend\IeC {\^e}ncia entre \textit  {Services} e o \textit  {Controller}}{79}{lstlisting.4.8}\protected@file@percent }
\citation{Symfony_Form}
\@writefile{toc}{\contentsline {subsection}{\numberline {4.1.4}\textit  {Form}}{80}{subsection.4.1.4}\protected@file@percent }
\newlabel{code:ProposalType}{{4.9}{81}{Excerto da implementação do \textit {ProposalType}}{lstlisting.4.9}{}}
\@writefile{lol}{\contentsline {lstlisting}{\numberline {4.9}Excerto da implementa\IeC {\c c}\IeC {\~a}o do \textit  {ProposalType}}{81}{lstlisting.4.9}\protected@file@percent }
\@writefile{toc}{\contentsline {subsection}{\numberline {4.1.5}\textit  {Views}}{81}{subsection.4.1.5}\protected@file@percent }
\newlabel{Views}{{4.1.5}{81}{\textit {Views}}{subsection.4.1.5}{}}
\@writefile{lof}{\contentsline {figure}{\numberline {4.3}{\ignorespaces Demonstra\IeC {\c c}\IeC {\~a}o de uma \textit  {Dashboard}\relax }}{82}{figure.caption.58}\protected@file@percent }
\newlabel{fig:Dashboard}{{4.3}{82}{Demonstração de uma \textit {Dashboard}\relax }{figure.caption.58}{}}
\@writefile{lof}{\contentsline {figure}{\numberline {4.4}{\ignorespaces Demonstra\IeC {\c c}\IeC {\~a}o de uma p\IeC {\'a}gina simples\relax }}{83}{figure.caption.59}\protected@file@percent }
\newlabel{fig:Pagina_Simples}{{4.4}{83}{Demonstração de uma página simples\relax }{figure.caption.59}{}}
\@writefile{lof}{\contentsline {figure}{\numberline {4.5}{\ignorespaces Demonstra\IeC {\c c}\IeC {\~a}o de um \textit  {Form}\relax }}{83}{figure.caption.60}\protected@file@percent }
\newlabel{fig:Form}{{4.5}{83}{Demonstração de um \textit {Form}\relax }{figure.caption.60}{}}
\citation{Testes_Aceitacao}
\newlabel{code:TWIG}{{4.10}{84}{Preenchimento de listas a partir do Form}{lstlisting.4.10}{}}
\@writefile{lol}{\contentsline {lstlisting}{\numberline {4.10}Preenchimento de listas a partir do Form}{84}{lstlisting.4.10}\protected@file@percent }
\@writefile{toc}{\contentsline {section}{\numberline {4.2}Testes}{84}{section.4.2}\protected@file@percent }
\newlabel{Testes}{{4.2}{84}{Testes}{section.4.2}{}}
\@writefile{toc}{\contentsline {section}{\numberline {4.3}Avalia\IeC {\c c}\IeC {\~a}o da solu\IeC {\c c}\IeC {\~a}o}{85}{section.4.3}\protected@file@percent }
\@writefile{toc}{\contentsline {chapter}{\numberline {5}Conclus\IeC {\~o}es}{87}{chapter.5}\protected@file@percent }
\@writefile{lof}{\addvspace {10\p@ }}
\@writefile{lot}{\addvspace {10\p@ }}
\@writefile{toc}{\contentsline {section}{\numberline {5.1}Objetivos concretizados}{87}{section.5.1}\protected@file@percent }
\@writefile{toc}{\contentsline {section}{\numberline {5.2}Limita\IeC {\c c}\IeC {\~o}es e trabalho futuro}{88}{section.5.2}\protected@file@percent }
\@writefile{toc}{\contentsline {section}{\numberline {5.3}Aprecia\IeC {\c c}\IeC {\~a}o final}{90}{section.5.3}\protected@file@percent }
\bibstyle{ieeetran}
\bibdata{bibliografia/Referencias}
\bibcite{Agile}{1}
\bibcite{ErasmusIntern}{2}
\bibcite{GoAbroad}{3}
\bibcite{GlobalExperiences}{4}
\bibcite{GlobalPlacement}{5}
\bibcite{InternshipsAbroad}{6}
\bibcite{Glassdoor}{7}
\bibcite{PlataformaDEI}{8}
\bibcite{FrameworkComparison}{9}
\bibcite{FrameworkComparisonCode}{10}
\bibcite{SOLanguageStudy}{11}
\bibcite{TIOBEIndex2019}{12}
\bibcite{PHPIntro}{13}
\@writefile{toc}{\contentsline {chapter}{Refer\IeC {\^e}ncias}{91}{section.5.3}\protected@file@percent }
\bibcite{Symfony}{14}
\bibcite{Twig}{15}
\bibcite{MySQL}{16}
\bibcite{PHPBenchmarks}{17}
\bibcite{FURPS01}{18}
\bibcite{FURPS02}{19}
\bibcite{Functional_Requirements}{20}
\bibcite{Non_Functional_Requirements}{21}
\bibcite{ISO_9126}{22}
\bibcite{Software_Performance}{23}
\bibcite{Software_Supportability}{24}
\bibcite{Symfony_MVC}{25}
\bibcite{MVC_Arquitecture}{26}
\bibcite{PHP_Visibility}{27}
\bibcite{Symfony_Associations}{28}
\bibcite{Symfony_Controller}{29}
\bibcite{Symfony_Routing}{30}
\bibcite{Symfony_Template}{31}
\bibcite{Refactoring}{32}
\bibcite{Symfony_Mailer}{33}
\bibcite{Symfony_Form}{34}
\bibcite{Testes_Aceitacao}{35}
\@writefile{toc}{\contentsline {chapter}{Anexos}{}{}}
\@writefile{toc}{\cftpagenumberson  {chapter}}
\@writefile{toc}{\contentsline {chapter}{\numberline {A}Documenta\IeC {\c c}\IeC {\~a}o Complementar}{95}{appendix.A}\protected@file@percent }
\@writefile{lof}{\addvspace {10\p@ }}
\@writefile{lot}{\addvspace {10\p@ }}
\newlabel{Documenta\IeC {\c c}\IeC {\~a}oComplementar}{{A}{95}{Documentação Complementar}{appendix.A}{}}
\@writefile{lof}{\contentsline {figure}{\numberline {A.1}{\ignorespaces UC01 - \textit  {Sequence Diagram (Initial Sequence)}\relax }}{96}{figure.caption.62}\protected@file@percent }
\newlabel{fig:UC01 - Create Proposal - Sequence Diagram Initial Sequence}{{A.1}{96}{UC01 - \textit {Sequence Diagram (Initial Sequence)}\relax }{figure.caption.62}{}}
\@writefile{lof}{\contentsline {figure}{\numberline {A.2}{\ignorespaces UC04 - \textit  {Sequence Diagram (Initial Sequence)}\relax }}{97}{figure.caption.63}\protected@file@percent }
\newlabel{fig:UC04 - Evaluate Institution - Sequence Diagram Initial Sequence}{{A.2}{97}{UC04 - \textit {Sequence Diagram (Initial Sequence)}\relax }{figure.caption.63}{}}
\@writefile{lof}{\contentsline {figure}{\numberline {A.3}{\ignorespaces UC06 - \textit  {Sequence Diagram (Initial Sequence)}\relax }}{98}{figure.caption.64}\protected@file@percent }
\newlabel{fig:UC06 - Update Proposal - Initial Sequence}{{A.3}{98}{UC06 - \textit {Sequence Diagram (Initial Sequence)}\relax }{figure.caption.64}{}}
\@writefile{lof}{\contentsline {figure}{\numberline {A.4}{\ignorespaces UC15 - \textit  {Sequence Diagram (Initial Sequence)}\relax }}{99}{figure.caption.65}\protected@file@percent }
\newlabel{fig:UC15 - Clone Proposal - Initial Sequence}{{A.4}{99}{UC15 - \textit {Sequence Diagram (Initial Sequence)}\relax }{figure.caption.65}{}}
\@writefile{toc}{\contentsline {chapter}{\numberline {B}Excertos de C\IeC {\'o}digo}{101}{appendix.B}\protected@file@percent }
\@writefile{lof}{\addvspace {10\p@ }}
\@writefile{lot}{\addvspace {10\p@ }}
\newlabel{ExcertosC\IeC {\'o}digo}{{B}{101}{Excertos de Código}{appendix.B}{}}
\newlabel{code:Entity}{{B.1}{101}{Exemplo de implementação de uma \textit {Entity}}{lstlisting.B.1}{}}
\@writefile{lol}{\contentsline {lstlisting}{\numberline {B.1}Exemplo de implementa\IeC {\c c}\IeC {\~a}o de uma \textit  {Entity}}{101}{lstlisting.B.1}\protected@file@percent }
\newlabel{code:Controller}{{B.2}{102}{Implementação do método do \textit {Controller} do \textit {UC04 - Evaluate Institution}}{lstlisting.B.2}{}}
\@writefile{lol}{\contentsline {lstlisting}{\numberline {B.2}Implementa\IeC {\c c}\IeC {\~a}o do m\IeC {\'e}todo do \textit  {Controller} do \textit  {UC04 - Evaluate Institution}}{102}{lstlisting.B.2}\protected@file@percent }
\newlabel{code:UC15}{{B.3}{105}{Implementação do método do \textit {Controller} do \textit {UC15 - Clone Proposal}}{lstlisting.B.3}{}}
\@writefile{lol}{\contentsline {lstlisting}{\numberline {B.3}Implementa\IeC {\c c}\IeC {\~a}o do m\IeC {\'e}todo do \textit  {Controller} do \textit  {UC15 - Clone Proposal}}{105}{lstlisting.B.3}\protected@file@percent }
\newlabel{code:Service}{{B.4}{108}{Implementação do \textit {PurgeService}}{lstlisting.B.4}{}}
\@writefile{lol}{\contentsline {lstlisting}{\numberline {B.4}Implementa\IeC {\c c}\IeC {\~a}o do \textit  {PurgeService}}{108}{lstlisting.B.4}\protected@file@percent }
\newlabel{code:MailerService}{{B.5}{110}{Implementação do \textit {MailerService}}{lstlisting.B.5}{}}
\@writefile{lol}{\contentsline {lstlisting}{\numberline {B.5}Implementa\IeC {\c c}\IeC {\~a}o do \textit  {MailerService}}{110}{lstlisting.B.5}\protected@file@percent }
\newlabel{code:ServiceCall}{{B.6}{113}{Exemplo de uso de \textit {Services}}{lstlisting.B.6}{}}
\@writefile{lol}{\contentsline {lstlisting}{\numberline {B.6}Exemplo de uso de \textit  {Services}}{113}{lstlisting.B.6}\protected@file@percent }
\newlabel{code:Form}{{B.7}{113}{Exemplo de implementação de um \textit {Form}}{lstlisting.B.7}{}}
\@writefile{lol}{\contentsline {lstlisting}{\numberline {B.7}Exemplo de implementa\IeC {\c c}\IeC {\~a}o de um \textit  {Form}}{113}{lstlisting.B.7}\protected@file@percent }
