This is BibTeX, Version 0.99dThe top-level auxiliary file: pesti-relatorio_v1.aux
The style file: ieeetran.bst
Database file #1: bibliografia/Referencias.bib
-- IEEEtran.bst version 1.14 (2015/08/26) by Michael Shell.
-- http://www.michaelshell.org/tex/ieeetran/bibtex/
-- See the "IEEEtran_bst_HOWTO.pdf" manual for usage information.
Warning--missing publisher in PHPIntro
Warning--missing publisher in Symfony
Warning--missing publisher in FURPS02
Warning--missing publisher in Non_Functional_Requirements
Warning--empty journal in Software_Performance

Done.
(There were 5 warnings)
